{
  "title":"Plant trees",
  "why":"Lorem ipsum, dolor sit amet consectetur adipisicing elit. Esse eligendi officia reprehenderit similique est. Iure ipsa ex quisquam dolorem quasi at rerum asperiores, magni delectus porro laborum ipsam explicabo voluptates.",
  "how":"Lorem ipsum, dolor sit amet consectetur adipisicing elit. Aut exercitationem facere iusto quibusdam sed velit, inventore accusamus? Nemo dolore expedita quaerat a temporibus aliquid ut laborum? Aperiam ab obcaecati ullam.",
  "resources":[
    { 
      "title":"(Guardian) Tree planting 'has mind-blowing potential' to tackle climate crisis", 
      "link":"https://www.theguardian.com/environment/2019/jul/04/planting-billions-trees-best-tackle-climate-crisis-scientists-canopy-emissions"
    }
  ]
}